{
  "profiles": {
    "travail-fichiers": {
      "commandName": "Project",
      "launchBrowser": true,
      "environmentVariables": {
        "ASPNETCORE_ENVIRONMENT": "Development"
      },
      "applicationUrl": "https://localhost:56102;http://localhost:56107"
    }
  }
}